# Copyright 1999-2012 Gentoo Foundation
# Distributed under the terms of the GNU General Public License v2
# $Header: /data/temp/gentoo//vcs-public-cvsroot/gentoo-x86/profiles/hardened/linux/x86/use.mask,v 1.6 2012/03/15 12:44:24 scarabeus Exp $

# Binary nvidia drivers are masked, USE flags must be too.
video_cards_nvidia
nvidia
cuda
