# Copyright 1999-2012 Gentoo Foundation.
# Distributed under the terms of the GNU General Public License, v2
# $Header: /data/temp/gentoo//vcs-public-cvsroot/gentoo-x86/profiles/default/bsd/fbsd/use.mask,v 1.3 2012/04/02 10:32:11 naota Exp $

# Espeak does not run on bsd
espeak

# Beagle needs these patches #176668, 176670.
beagle

# Someone who knows kerberos is needed to make sure that this works
kerberos
krb4

# Apache defaults to Apache 1.x, mask it for the time
apache

# fftw requires sinl and cosl function, not present in FreeBSD
fftw

# we have hardened.
-hardened

# Unmask freebsd-specific variables
-elibc_FreeBSD
-kernel_FreeBSD

# This does not build on FreeBSD, unless anybody wants to fix it, use opie
skey

# To be tested
meanwhile
smartcard
openct
mzscheme
snmp
pyste
pcsc-lite
sametime
sms
mtp
milter
qdbm
xemacs
xosd

# we don't have custom patched cdparanoia for fbsd anymore
cdparanoia

# wayland is not targetting BSDs
wayland
